%YAML 1.1
%TAG !u! tag:unity3d.com,2011:
--- !u!114 &11400000
MonoBehaviour:
  m_ObjectHideFlags: 0
  m_CorrespondingSourceObject: {fileID: 0}
  m_PrefabInstance: {fileID: 0}
  m_PrefabAsset: {fileID: 0}
  m_GameObject: {fileID: 0}
  m_Enabled: 1
  m_EditorHideFlags: 0
  m_Script: {fileID: 11500000, guid: 6c5b1f557d5ff6e43b1031db62468f5f, type: 3}
  m_Name: FlipperL
  m_EditorClassIdentifier: 
  _flipperRestPosition: 0
  _flipperPressedPosition: 45
  _flipperHitStrenght: 10000
  _flipperDamper: 0.1
  _direction: -1
