%YAML 1.1
%TAG !u! tag:unity3d.com,2011:
--- !u!114 &11400000
MonoBehaviour:
  m_ObjectHideFlags: 0
  m_CorrespondingSourceObject: {fileID: 0}
  m_PrefabInstance: {fileID: 0}
  m_PrefabAsset: {fileID: 0}
  m_GameObject: {fileID: 0}
  m_Enabled: 1
  m_EditorHideFlags: 0
  m_Script: {fileID: 11500000, guid: 6daf13695f7b3214f8ff6a9040796341, type: 3}
  m_Name: Scores
  m_EditorClassIdentifier: 
  _easyScores: 8d0300000000000097000000000000000500000000000000
  _mediumScores: 
  _hardScores: 
